%YAML 1.1
%TAG !u! tag:unity3d.com,2011:
--- !u!78 &1
TagManager:
  serializedVersion: 2
  tags:
  - bandage
  - painkill
  - HealthBar
  - health2
  - burn
  - health1
  - saw
  - hands
  - health5
  - health3
  - cursor
  - OperationBandages
  - tweezers
  - health4
  - water
  - alcohol2
  - alcohol
  - bandages
  - painkillers
  - Canvas
  - ResourceButton
  - Gunshot(leg)
  - BrokenLeg
  - Cut
  - FixedArm
  - FixedThigh
  - SnappedLeg
  - FixedLeg
  - Splint
  - gloves
  - tweezer
  - alc
  - burngel
  - morphine
  - Thread
  - splint
  - painkillUI
  - bandageUI
  - TorsoHand
  - HandCut
  - LegCut
  - BrokenArm
  - scrapes
  - HeadHurt
  layers:
  - Default
  - TransparentFX
  - Ignore Raycast
  - 
  - Water
  - UI
  - 
  - 
  - pills
  - bandages
  - 
  - 
  - 
  - 
  - 
  - 
  - 
  - 
  - 
  - 
  - 
  - 
  - 
  - 
  - 
  - 
  - 
  - 
  - 
  - 
  - 
  - 
  m_SortingLayers:
  - name: Background
    uniqueID: 1926237771
    locked: 0
  - name: Default
    uniqueID: 0
    locked: 0
  - name: Foreground
    uniqueID: 2921101603
    locked: 0
